<svg width="3em" height="3em" viewBox="0 0 40 50" fill="none" xmlns="http://www.w3.org/2000/svg">
<path d="M35.3504 2.93791V8.69201H4.64964V2.93791H0V49.1417H40V2.93791H35.3504ZM9.29567 37.474H6.19677V34.5981H9.29567V37.474ZM9.29567 30.7582H6.19677V27.8823H9.29567V30.7582ZM9.29567 24.0424H6.19677V21.1665H9.29567V24.0424ZM9.29567 17.3266H6.19677V14.4507H9.29567V17.3266ZM33.8031 37.474H12.3947V34.5981H33.8031V37.474ZM33.8031 30.7582H12.3947V27.8823H33.8031V30.7582ZM33.8031 24.0424H12.3947V21.1665H33.8031V24.0424ZM33.8031 17.3266H12.3947V14.4507H33.8031V17.3266Z" fill="black"/>
<path d="M32.2542 0.0596924H7.74609V5.81627H32.2542V0.0596924Z" fill="black"/>
</svg>
