<svg width="20" height="20" viewBox="0 0 20 20" fill="none" xmlns="http://www.w3.org/2000/svg">
<path d="M9.8304 0.615242C6.23672 0.615242 3.31299 3.53898 3.31299 7.13265C3.31299 11.6495 9.83681 19.3652 9.83681 19.3652C9.83681 19.3652 16.3478 11.4274 16.3478 7.13265C16.3478 3.53898 13.4242 0.615242 9.8304 0.615242ZM11.7968 9.04095C11.2546 9.58306 10.5426 9.85417 9.8304 9.85417C9.11835 9.85417 8.40607 9.58306 7.86407 9.04095C6.77975 7.95674 6.77975 6.19252 7.86407 5.10819C8.38913 4.58291 9.08756 4.2936 9.8304 4.2936C10.5732 4.2936 11.2716 4.58302 11.7968 5.10819C12.8812 6.19252 12.8812 7.95674 11.7968 9.04095Z" fill="#505050"/>
</svg>
