<svg width="40" height="48" viewBox="0 0 40 48" fill="none" xmlns="http://www.w3.org/2000/svg">
<path d="M35.3504 0.937912V6.69201H4.64964V0.937912H0V47.1417H40V0.937912H35.3504ZM9.29567 35.474H6.19677V32.5981H9.29567V35.474ZM9.29567 28.7582H6.19677V25.8823H9.29567V28.7582ZM9.29567 22.0424H6.19677V19.1665H9.29567V22.0424ZM9.29567 15.3266H6.19677V12.4507H9.29567V15.3266ZM33.8031 35.474H12.3947V32.5981H33.8031V35.474ZM33.8031 28.7582H12.3947V25.8823H33.8031V28.7582ZM33.8031 22.0424H12.3947V19.1665H33.8031V22.0424ZM33.8031 15.3266H12.3947V12.4507H33.8031V15.3266Z" fill="black"/>
</svg>
